  0
SECTION
  2
BLOCKS
  0
ENDSEC
  0
SECTION
  2
ENTITIES
  0
LINE
  8
0
 10
9.4953
 20
38.2984
 11
9.48125
 21
38.5965
  0
LINE
  8
0
 10
9.48125
 20
38.5965
 11
9.45782
 21
38.894
  0
LINE
  8
0
 10
9.45782
 20
38.894
 11
9.42508
 21
39.1907
  0
LINE
  8
0
 10
9.42508
 20
39.1907
 11
9.38303
 21
39.4861
  0
LINE
  8
0
 10
9.38303
 20
39.4861
 11
9.33173
 21
39.7801
  0
LINE
  8
0
 10
9.33173
 20
39.7801
 11
9.27119
 21
40.0724
  0
LINE
  8
0
 10
9.27119
 20
40.0724
 11
9.20154
 21
40.3625
  0
LINE
  8
0
 10
9.20154
 20
40.3625
 11
9.12279
 21
40.6504
  0
LINE
  8
0
 10
9.12279
 20
40.6504
 11
9.03503
 21
40.9357
  0
LINE
  8
0
 10
9.03503
 20
40.9357
 11
8.93835
 21
41.218
  0
LINE
  8
0
 10
8.93835
 20
41.218
 11
8.83287
 21
41.4972
  0
LINE
  8
0
 10
8.83287
 20
41.4972
 11
8.71866
 21
41.7729
  0
LINE
  8
0
 10
8.71866
 20
41.7729
 11
8.59586
 21
42.0449
  0
LINE
  8
0
 10
8.59586
 20
42.0449
 11
8.46455
 21
42.3129
  0
LINE
  8
0
 10
8.46455
 20
42.3129
 11
8.32491
 21
42.5766
  0
LINE
  8
0
 10
8.32491
 20
42.5766
 11
8.17705
 21
42.8359
  0
LINE
  8
0
 10
8.17705
 20
42.8359
 11
8.0211
 21
43.0903
  0
LINE
  8
0
 10
8.0211
 20
43.0903
 11
7.85725
 21
43.3398
  0
LINE
  8
0
 10
7.85725
 20
43.3398
 11
7.68565
 21
43.584
  0
LINE
  8
0
 10
7.68565
 20
43.584
 11
7.50647
 21
43.8226
  0
LINE
  8
0
 10
7.50647
 20
43.8226
 11
7.31987
 21
44.0555
  0
LINE
  8
0
 10
7.31987
 20
44.0555
 11
7.12605
 21
44.2825
  0
LINE
  8
0
 10
7.12605
 20
44.2825
 11
6.9252
 21
44.5032
  0
LINE
  8
0
 10
6.9252
 20
44.5032
 11
6.71751
 21
44.7175
  0
LINE
  8
0
 10
6.71751
 20
44.7175
 11
6.50319
 21
44.9252
  0
LINE
  8
0
 10
6.50319
 20
44.9252
 11
6.28246
 21
45.1261
  0
LINE
  8
0
 10
6.28246
 20
45.1261
 11
6.05553
 21
45.3199
  0
LINE
  8
0
 10
6.05553
 20
45.3199
 11
5.82262
 21
45.5065
  0
LINE
  8
0
 10
5.82262
 20
45.5065
 11
5.58395
 21
45.6857
  0
LINE
  8
0
 10
5.58395
 20
45.6857
 11
5.33978
 21
45.8573
  0
LINE
  8
0
 10
5.33978
 20
45.8573
 11
5.09035
 21
46.0211
  0
LINE
  8
0
 10
5.09035
 20
46.0211
 11
4.83589
 21
46.177
  0
LINE
  8
0
 10
4.83589
 20
46.177
 11
4.57664
 21
46.3249
  0
LINE
  8
0
 10
4.57664
 20
46.3249
 11
4.3129
 21
46.4646
  0
LINE
  8
0
 10
4.3129
 20
46.4646
 11
4.04489
 21
46.5959
  0
LINE
  8
0
 10
4.04489
 20
46.5959
 11
3.7729
 21
46.7187
  0
LINE
  8
0
 10
3.7729
 20
46.7187
 11
3.49718
 21
46.8329
  0
LINE
  8
0
 10
3.49718
 20
46.8329
 11
3.218
 21
46.9384
  0
LINE
  8
0
 10
3.218
 20
46.9384
 11
2.93565
 21
47.035
  0
LINE
  8
0
 10
2.93565
 20
47.035
 11
2.65041
 21
47.1228
  0
LINE
  8
0
 10
2.65041
 20
47.1228
 11
2.36255
 21
47.2015
  0
LINE
  8
0
 10
2.36255
 20
47.2015
 11
2.07236
 21
47.2712
  0
LINE
  8
0
 10
2.07236
 20
47.2712
 11
1.78012
 21
47.3317
  0
LINE
  8
0
 10
1.78012
 20
47.3317
 11
1.48611
 21
47.383
  0
LINE
  8
0
 10
1.48611
 20
47.383
 11
1.19066
 21
47.4251
  0
LINE
  8
0
 10
1.19066
 20
47.4251
 11
0.894028
 21
47.4578
  0
LINE
  8
0
 10
0.894028
 20
47.4578
 11
0.596497
 21
47.4812
  0
LINE
  8
0
 10
0.596497
 20
47.4812
 11
0.298401
 21
47.4953
  0
LINE
  8
0
 10
0.298401
 20
47.4953
 11
1.05471e-14
 21
47.5
  0
LINE
  8
0
 10
1.05471e-14
 20
47.5
 11
-0.298386
 21
47.4953
  0
LINE
  8
0
 10
-0.298386
 20
47.4953
 11
-0.596481
 21
47.4812
  0
LINE
  8
0
 10
-0.596481
 20
47.4812
 11
-0.894012
 21
47.4578
  0
LINE
  8
0
 10
-0.894012
 20
47.4578
 11
-1.19064
 21
47.4251
  0
LINE
  8
0
 10
-1.19064
 20
47.4251
 11
-1.4861
 21
47.383
  0
LINE
  8
0
 10
-1.4861
 20
47.383
 11
-1.78011
 21
47.3317
  0
LINE
  8
0
 10
-1.78011
 20
47.3317
 11
-2.07234
 21
47.2712
  0
LINE
  8
0
 10
-2.07234
 20
47.2712
 11
-2.36253
 21
47.2015
  0
LINE
  8
0
 10
-2.36253
 20
47.2015
 11
-2.65039
 21
47.1228
  0
LINE
  8
0
 10
-2.65039
 20
47.1228
 11
-2.93564
 21
47.035
  0
LINE
  8
0
 10
-2.93564
 20
47.035
 11
-3.21799
 21
46.9384
  0
LINE
  8
0
 10
-3.21799
 20
46.9384
 11
-3.49716
 21
46.8329
  0
LINE
  8
0
 10
-3.49716
 20
46.8329
 11
-3.77289
 21
46.7187
  0
LINE
  8
0
 10
-3.77289
 20
46.7187
 11
-4.04488
 21
46.5959
  0
LINE
  8
0
 10
-4.04488
 20
46.5959
 11
-4.31288
 21
46.4646
  0
LINE
  8
0
 10
-4.31288
 20
46.4646
 11
-4.57663
 21
46.3249
  0
LINE
  8
0
 10
-4.57663
 20
46.3249
 11
-4.83588
 21
46.177
  0
LINE
  8
0
 10
-4.83588
 20
46.177
 11
-5.09033
 21
46.0211
  0
LINE
  8
0
 10
-5.09033
 20
46.0211
 11
-5.33977
 21
45.8573
  0
LINE
  8
0
 10
-5.33977
 20
45.8573
 11
-5.58394
 21
45.6857
  0
LINE
  8
0
 10
-5.58394
 20
45.6857
 11
-5.8226
 21
45.5065
  0
LINE
  8
0
 10
-5.8226
 20
45.5065
 11
-6.05551
 21
45.3199
  0
LINE
  8
0
 10
-6.05551
 20
45.3199
 11
-6.28244
 21
45.1261
  0
LINE
  8
0
 10
-6.28244
 20
45.1261
 11
-6.50317
 21
44.9252
  0
LINE
  8
0
 10
-6.50317
 20
44.9252
 11
-6.7175
 21
44.7175
  0
LINE
  8
0
 10
-6.7175
 20
44.7175
 11
-6.92519
 21
44.5032
  0
LINE
  8
0
 10
-6.92519
 20
44.5032
 11
-7.12604
 21
44.2825
  0
LINE
  8
0
 10
-7.12604
 20
44.2825
 11
-7.31985
 21
44.0555
  0
LINE
  8
0
 10
-7.31985
 20
44.0555
 11
-7.50645
 21
43.8226
  0
LINE
  8
0
 10
-7.50645
 20
43.8226
 11
-7.68564
 21
43.584
  0
LINE
  8
0
 10
-7.68564
 20
43.584
 11
-7.85724
 21
43.3398
  0
LINE
  8
0
 10
-7.85724
 20
43.3398
 11
-8.02109
 21
43.0903
  0
LINE
  8
0
 10
-8.02109
 20
43.0903
 11
-8.17703
 21
42.8359
  0
LINE
  8
0
 10
-8.17703
 20
42.8359
 11
-8.32489
 21
42.5766
  0
LINE
  8
0
 10
-8.32489
 20
42.5766
 11
-8.46454
 21
42.3129
  0
LINE
  8
0
 10
-8.46454
 20
42.3129
 11
-8.59584
 21
42.0449
  0
LINE
  8
0
 10
-8.59584
 20
42.0449
 11
-8.71866
 21
41.7729
  0
LINE
  8
0
 10
-8.71866
 20
41.7729
 11
-8.83287
 21
41.4972
  0
LINE
  8
0
 10
-8.83287
 20
41.4972
 11
-8.93835
 21
41.218
  0
LINE
  8
0
 10
-8.93835
 20
41.218
 11
-9.03503
 21
40.9357
  0
LINE
  8
0
 10
-9.03503
 20
40.9357
 11
-9.12279
 21
40.6504
  0
LINE
  8
0
 10
-9.12279
 20
40.6504
 11
-9.20154
 21
40.3625
  0
LINE
  8
0
 10
-9.20154
 20
40.3625
 11
-9.27119
 21
40.0724
  0
LINE
  8
0
 10
-9.27119
 20
40.0724
 11
-9.33173
 21
39.7801
  0
LINE
  8
0
 10
-9.33173
 20
39.7801
 11
-9.38303
 21
39.4861
  0
LINE
  8
0
 10
-9.38303
 20
39.4861
 11
-9.42508
 21
39.1907
  0
LINE
  8
0
 10
-9.42508
 20
39.1907
 11
-9.45782
 21
38.894
  0
LINE
  8
0
 10
-9.45782
 20
38.894
 11
-9.48125
 21
38.5965
  0
LINE
  8
0
 10
-9.48125
 20
38.5965
 11
-9.4953
 21
38.2984
  0
LINE
  8
0
 10
-9.4953
 20
38.2984
 11
-9.5
 21
38
  0
LINE
  8
0
 10
-9.5
 20
38
 11
-9.5
 21
-38
  0
LINE
  8
0
 10
-9.5
 20
-38
 11
-9.4953
 21
-38.2984
  0
LINE
  8
0
 10
-9.4953
 20
-38.2984
 11
-9.48125
 21
-38.5965
  0
LINE
  8
0
 10
-9.48125
 20
-38.5965
 11
-9.45782
 21
-38.894
  0
LINE
  8
0
 10
-9.45782
 20
-38.894
 11
-9.42508
 21
-39.1907
  0
LINE
  8
0
 10
-9.42508
 20
-39.1907
 11
-9.38303
 21
-39.4861
  0
LINE
  8
0
 10
-9.38303
 20
-39.4861
 11
-9.33173
 21
-39.7801
  0
LINE
  8
0
 10
-9.33173
 20
-39.7801
 11
-9.27119
 21
-40.0724
  0
LINE
  8
0
 10
-9.27119
 20
-40.0724
 11
-9.20154
 21
-40.3625
  0
LINE
  8
0
 10
-9.20154
 20
-40.3625
 11
-9.12279
 21
-40.6504
  0
LINE
  8
0
 10
-9.12279
 20
-40.6504
 11
-9.03503
 21
-40.9357
  0
LINE
  8
0
 10
-9.03503
 20
-40.9357
 11
-8.93835
 21
-41.218
  0
LINE
  8
0
 10
-8.93835
 20
-41.218
 11
-8.83287
 21
-41.4972
  0
LINE
  8
0
 10
-8.83287
 20
-41.4972
 11
-8.71866
 21
-41.7729
  0
LINE
  8
0
 10
-8.71866
 20
-41.7729
 11
-8.59584
 21
-42.0449
  0
LINE
  8
0
 10
-8.59584
 20
-42.0449
 11
-8.46454
 21
-42.3129
  0
LINE
  8
0
 10
-8.46454
 20
-42.3129
 11
-8.32489
 21
-42.5766
  0
LINE
  8
0
 10
-8.32489
 20
-42.5766
 11
-8.17703
 21
-42.8359
  0
LINE
  8
0
 10
-8.17703
 20
-42.8359
 11
-8.02109
 21
-43.0903
  0
LINE
  8
0
 10
-8.02109
 20
-43.0903
 11
-7.85724
 21
-43.3398
  0
LINE
  8
0
 10
-7.85724
 20
-43.3398
 11
-7.68564
 21
-43.584
  0
LINE
  8
0
 10
-7.68564
 20
-43.584
 11
-7.50645
 21
-43.8226
  0
LINE
  8
0
 10
-7.50645
 20
-43.8226
 11
-7.31985
 21
-44.0555
  0
LINE
  8
0
 10
-7.31985
 20
-44.0555
 11
-7.12604
 21
-44.2825
  0
LINE
  8
0
 10
-7.12604
 20
-44.2825
 11
-6.92519
 21
-44.5032
  0
LINE
  8
0
 10
-6.92519
 20
-44.5032
 11
-6.7175
 21
-44.7175
  0
LINE
  8
0
 10
-6.7175
 20
-44.7175
 11
-6.50317
 21
-44.9252
  0
LINE
  8
0
 10
-6.50317
 20
-44.9252
 11
-6.28244
 21
-45.1261
  0
LINE
  8
0
 10
-6.28244
 20
-45.1261
 11
-6.05551
 21
-45.3199
  0
LINE
  8
0
 10
-6.05551
 20
-45.3199
 11
-5.8226
 21
-45.5065
  0
LINE
  8
0
 10
-5.8226
 20
-45.5065
 11
-5.58394
 21
-45.6857
  0
LINE
  8
0
 10
-5.58394
 20
-45.6857
 11
-5.33977
 21
-45.8573
  0
LINE
  8
0
 10
-5.33977
 20
-45.8573
 11
-5.09033
 21
-46.0211
  0
LINE
  8
0
 10
-5.09033
 20
-46.0211
 11
-4.83588
 21
-46.177
  0
LINE
  8
0
 10
-4.83588
 20
-46.177
 11
-4.57663
 21
-46.3249
  0
LINE
  8
0
 10
-4.57663
 20
-46.3249
 11
-4.31288
 21
-46.4646
  0
LINE
  8
0
 10
-4.31288
 20
-46.4646
 11
-4.04488
 21
-46.5959
  0
LINE
  8
0
 10
-4.04488
 20
-46.5959
 11
-3.77289
 21
-46.7187
  0
LINE
  8
0
 10
-3.77289
 20
-46.7187
 11
-3.49716
 21
-46.8329
  0
LINE
  8
0
 10
-3.49716
 20
-46.8329
 11
-3.21799
 21
-46.9384
  0
LINE
  8
0
 10
-3.21799
 20
-46.9384
 11
-2.93564
 21
-47.035
  0
LINE
  8
0
 10
-2.93564
 20
-47.035
 11
-2.65039
 21
-47.1228
  0
LINE
  8
0
 10
-2.65039
 20
-47.1228
 11
-2.36253
 21
-47.2015
  0
LINE
  8
0
 10
-2.36253
 20
-47.2015
 11
-2.07234
 21
-47.2712
  0
LINE
  8
0
 10
-2.07234
 20
-47.2712
 11
-1.78011
 21
-47.3317
  0
LINE
  8
0
 10
-1.78011
 20
-47.3317
 11
-1.4861
 21
-47.383
  0
LINE
  8
0
 10
-1.4861
 20
-47.383
 11
-1.19064
 21
-47.4251
  0
LINE
  8
0
 10
-1.19064
 20
-47.4251
 11
-0.894012
 21
-47.4578
  0
LINE
  8
0
 10
-0.894012
 20
-47.4578
 11
-0.596481
 21
-47.4812
  0
LINE
  8
0
 10
-0.596481
 20
-47.4812
 11
-0.298386
 21
-47.4953
  0
LINE
  8
0
 10
-0.298386
 20
-47.4953
 11
-1.05471e-14
 21
-47.5
  0
LINE
  8
0
 10
-1.05471e-14
 20
-47.5
 11
0.298401
 21
-47.4953
  0
LINE
  8
0
 10
0.298401
 20
-47.4953
 11
0.596497
 21
-47.4812
  0
LINE
  8
0
 10
0.596497
 20
-47.4812
 11
0.894028
 21
-47.4578
  0
LINE
  8
0
 10
0.894028
 20
-47.4578
 11
1.19066
 21
-47.4251
  0
LINE
  8
0
 10
1.19066
 20
-47.4251
 11
1.48611
 21
-47.383
  0
LINE
  8
0
 10
1.48611
 20
-47.383
 11
1.78012
 21
-47.3317
  0
LINE
  8
0
 10
1.78012
 20
-47.3317
 11
2.07236
 21
-47.2712
  0
LINE
  8
0
 10
2.07236
 20
-47.2712
 11
2.36255
 21
-47.2015
  0
LINE
  8
0
 10
2.36255
 20
-47.2015
 11
2.65041
 21
-47.1228
  0
LINE
  8
0
 10
2.65041
 20
-47.1228
 11
2.93565
 21
-47.035
  0
LINE
  8
0
 10
2.93565
 20
-47.035
 11
3.218
 21
-46.9384
  0
LINE
  8
0
 10
3.218
 20
-46.9384
 11
3.49718
 21
-46.8329
  0
LINE
  8
0
 10
3.49718
 20
-46.8329
 11
3.7729
 21
-46.7187
  0
LINE
  8
0
 10
3.7729
 20
-46.7187
 11
4.04489
 21
-46.5959
  0
LINE
  8
0
 10
4.04489
 20
-46.5959
 11
4.3129
 21
-46.4646
  0
LINE
  8
0
 10
4.3129
 20
-46.4646
 11
4.57664
 21
-46.3249
  0
LINE
  8
0
 10
4.57664
 20
-46.3249
 11
4.83589
 21
-46.177
  0
LINE
  8
0
 10
4.83589
 20
-46.177
 11
5.09035
 21
-46.0211
  0
LINE
  8
0
 10
5.09035
 20
-46.0211
 11
5.33978
 21
-45.8573
  0
LINE
  8
0
 10
5.33978
 20
-45.8573
 11
5.58395
 21
-45.6857
  0
LINE
  8
0
 10
5.58395
 20
-45.6857
 11
5.82262
 21
-45.5065
  0
LINE
  8
0
 10
5.82262
 20
-45.5065
 11
6.05553
 21
-45.3199
  0
LINE
  8
0
 10
6.05553
 20
-45.3199
 11
6.28246
 21
-45.1261
  0
LINE
  8
0
 10
6.28246
 20
-45.1261
 11
6.50319
 21
-44.9252
  0
LINE
  8
0
 10
6.50319
 20
-44.9252
 11
6.71751
 21
-44.7175
  0
LINE
  8
0
 10
6.71751
 20
-44.7175
 11
6.9252
 21
-44.5032
  0
LINE
  8
0
 10
6.9252
 20
-44.5032
 11
7.12605
 21
-44.2825
  0
LINE
  8
0
 10
7.12605
 20
-44.2825
 11
7.31987
 21
-44.0555
  0
LINE
  8
0
 10
7.31987
 20
-44.0555
 11
7.50647
 21
-43.8226
  0
LINE
  8
0
 10
7.50647
 20
-43.8226
 11
7.68565
 21
-43.584
  0
LINE
  8
0
 10
7.68565
 20
-43.584
 11
7.85725
 21
-43.3398
  0
LINE
  8
0
 10
7.85725
 20
-43.3398
 11
8.0211
 21
-43.0903
  0
LINE
  8
0
 10
8.0211
 20
-43.0903
 11
8.17705
 21
-42.8359
  0
LINE
  8
0
 10
8.17705
 20
-42.8359
 11
8.32491
 21
-42.5766
  0
LINE
  8
0
 10
8.32491
 20
-42.5766
 11
8.46455
 21
-42.3129
  0
LINE
  8
0
 10
8.46455
 20
-42.3129
 11
8.59586
 21
-42.0449
  0
LINE
  8
0
 10
8.59586
 20
-42.0449
 11
8.71866
 21
-41.7729
  0
LINE
  8
0
 10
8.71866
 20
-41.7729
 11
8.83287
 21
-41.4972
  0
LINE
  8
0
 10
8.83287
 20
-41.4972
 11
8.93835
 21
-41.218
  0
LINE
  8
0
 10
8.93835
 20
-41.218
 11
9.03503
 21
-40.9357
  0
LINE
  8
0
 10
9.03503
 20
-40.9357
 11
9.12279
 21
-40.6504
  0
LINE
  8
0
 10
9.12279
 20
-40.6504
 11
9.20154
 21
-40.3625
  0
LINE
  8
0
 10
9.20154
 20
-40.3625
 11
9.27119
 21
-40.0724
  0
LINE
  8
0
 10
9.27119
 20
-40.0724
 11
9.33173
 21
-39.7801
  0
LINE
  8
0
 10
9.33173
 20
-39.7801
 11
9.38303
 21
-39.4861
  0
LINE
  8
0
 10
9.38303
 20
-39.4861
 11
9.42508
 21
-39.1907
  0
LINE
  8
0
 10
9.42508
 20
-39.1907
 11
9.45782
 21
-38.894
  0
LINE
  8
0
 10
9.45782
 20
-38.894
 11
9.48125
 21
-38.5965
  0
LINE
  8
0
 10
9.48125
 20
-38.5965
 11
9.4953
 21
-38.2984
  0
LINE
  8
0
 10
9.4953
 20
-38.2984
 11
9.5
 21
-38
  0
LINE
  8
0
 10
9.5
 20
-38
 11
9.5
 21
38
  0
LINE
  8
0
 10
9.5
 20
38
 11
9.4953
 21
38.2984
  0
LINE
  8
0
 10
0.75
 20
-43
 11
0.706894
 21
-43
  0
LINE
  8
0
 10
0.706894
 20
-43
 11
0.678619
 21
-43.0693
  0
LINE
  8
0
 10
0.678619
 20
-43.0693
 11
0.645554
 21
-43.1318
  0
LINE
  8
0
 10
0.645554
 20
-43.1318
 11
0.60675
 21
-43.1908
  0
LINE
  8
0
 10
0.60675
 20
-43.1908
 11
0.562576
 21
-43.246
  0
LINE
  8
0
 10
0.562576
 20
-43.246
 11
0.513397
 21
-43.2967
  0
LINE
  8
0
 10
0.513397
 20
-43.2967
 11
0.459671
 21
-43.3426
  0
LINE
  8
0
 10
0.459671
 20
-43.3426
 11
0.401855
 21
-43.3832
  0
LINE
  8
0
 10
0.401855
 20
-43.3832
 11
0.340485
 21
-43.4182
  0
LINE
  8
0
 10
0.340485
 20
-43.4182
 11
0.276093
 21
-43.4473
  0
LINE
  8
0
 10
0.276093
 20
-43.4473
 11
0.209229
 21
-43.4702
  0
LINE
  8
0
 10
0.209229
 20
-43.4702
 11
0.140533
 21
-43.4867
  0
LINE
  8
0
 10
0.140533
 20
-43.4867
 11
0.0705719
 21
-43.4967
  0
LINE
  8
0
 10
0.0705719
 20
-43.4967
 11
0.0235443
 21
-43.4996
  0
LINE
  8
0
 10
0.0235443
 20
-43.4996
 11
-0.0470734
 21
-43.4985
  0
LINE
  8
0
 10
-0.0470734
 20
-43.4985
 11
-0.11731
 21
-43.4908
  0
LINE
  8
0
 10
-0.11731
 20
-43.4908
 11
-0.186493
 21
-43.4764
  0
LINE
  8
0
 10
-0.186493
 20
-43.4764
 11
-0.254028
 21
-43.4557
  0
LINE
  8
0
 10
-0.254028
 20
-43.4557
 11
-0.319305
 21
-43.4286
  0
LINE
  8
0
 10
-0.319305
 20
-43.4286
 11
-0.38176
 21
-43.3956
  0
LINE
  8
0
 10
-0.38176
 20
-43.3956
 11
-0.440811
 21
-43.3568
  0
LINE
  8
0
 10
-0.440811
 20
-43.3568
 11
-0.495956
 21
-43.3126
  0
LINE
  8
0
 10
-0.495956
 20
-43.3126
 11
-0.546707
 21
-43.2634
  0
LINE
  8
0
 10
-0.546707
 20
-43.2634
 11
-0.59259
 21
-43.2097
  0
LINE
  8
0
 10
-0.59259
 20
-43.2097
 11
-0.633224
 21
-43.1519
  0
LINE
  8
0
 10
-0.633224
 20
-43.1519
 11
-0.668228
 21
-43.0905
  0
LINE
  8
0
 10
-0.668228
 20
-43.0905
 11
-0.697311
 21
-43.0261
  0
LINE
  8
0
 10
-0.697311
 20
-43.0261
 11
-0.706238
 21
-43
  0
LINE
  8
0
 10
-0.706238
 20
-43
 11
-0.75
 21
-43
  0
LINE
  8
0
 10
-0.75
 20
-43
 11
-0.75
 21
43
  0
LINE
  8
0
 10
-0.75
 20
43
 11
-0.706879
 21
43
  0
LINE
  8
0
 10
-0.706879
 20
43
 11
-0.678604
 21
43.0693
  0
LINE
  8
0
 10
-0.678604
 20
43.0693
 11
-0.645538
 21
43.1318
  0
LINE
  8
0
 10
-0.645538
 20
43.1318
 11
-0.606735
 21
43.1908
  0
LINE
  8
0
 10
-0.606735
 20
43.1908
 11
-0.562561
 21
43.246
  0
LINE
  8
0
 10
-0.562561
 20
43.246
 11
-0.513382
 21
43.2967
  0
LINE
  8
0
 10
-0.513382
 20
43.2967
 11
-0.459656
 21
43.3426
  0
LINE
  8
0
 10
-0.459656
 20
43.3426
 11
-0.40184
 21
43.3832
  0
LINE
  8
0
 10
-0.40184
 20
43.3832
 11
-0.340469
 21
43.4182
  0
LINE
  8
0
 10
-0.340469
 20
43.4182
 11
-0.276077
 21
43.4473
  0
LINE
  8
0
 10
-0.276077
 20
43.4473
 11
-0.209213
 21
43.4702
  0
LINE
  8
0
 10
-0.209213
 20
43.4702
 11
-0.140518
 21
43.4867
  0
LINE
  8
0
 10
-0.140518
 20
43.4867
 11
-0.0705566
 21
43.4967
  0
LINE
  8
0
 10
-0.0705566
 20
43.4967
 11
-0.0235291
 21
43.4996
  0
LINE
  8
0
 10
-0.0235291
 20
43.4996
 11
0.0470886
 21
43.4985
  0
LINE
  8
0
 10
0.0470886
 20
43.4985
 11
0.117325
 21
43.4908
  0
LINE
  8
0
 10
0.117325
 20
43.4908
 11
0.186508
 21
43.4764
  0
LINE
  8
0
 10
0.186508
 20
43.4764
 11
0.254044
 21
43.4557
  0
LINE
  8
0
 10
0.254044
 20
43.4557
 11
0.319321
 21
43.4286
  0
LINE
  8
0
 10
0.319321
 20
43.4286
 11
0.381775
 21
43.3956
  0
LINE
  8
0
 10
0.381775
 20
43.3956
 11
0.440826
 21
43.3568
  0
LINE
  8
0
 10
0.440826
 20
43.3568
 11
0.495972
 21
43.3126
  0
LINE
  8
0
 10
0.495972
 20
43.3126
 11
0.546722
 21
43.2634
  0
LINE
  8
0
 10
0.546722
 20
43.2634
 11
0.592606
 21
43.2097
  0
LINE
  8
0
 10
0.592606
 20
43.2097
 11
0.63324
 21
43.1519
  0
LINE
  8
0
 10
0.63324
 20
43.1519
 11
0.668243
 21
43.0905
  0
LINE
  8
0
 10
0.668243
 20
43.0905
 11
0.697327
 21
43.0261
  0
LINE
  8
0
 10
0.697327
 20
43.0261
 11
0.706253
 21
43
  0
LINE
  8
0
 10
0.706253
 20
43
 11
0.75
 21
43
  0
LINE
  8
0
 10
0.75
 20
43
 11
0.75
 21
-43
  0
ENDSEC
  0
SECTION
  2
OBJECTS
  0
DICTIONARY
  0
ENDSEC
  0
EOF
