  0
SECTION
  2
BLOCKS
  0
ENDSEC
  0
SECTION
  2
ENTITIES
  0
LINE
  8
0
 10
-7
 20
52.25
 11
-9.5
 21
49.75
  0
LINE
  8
0
 10
-9.5
 20
49.75
 11
-9.5
 21
-11.75
  0
LINE
  8
0
 10
-9.5
 20
-11.75
 11
-7
 21
-14.25
  0
LINE
  8
0
 10
-7
 20
-14.25
 11
-9.5
 21
-16.75
  0
LINE
  8
0
 10
-9.5
 20
-16.75
 11
-9.5
 21
-19
  0
LINE
  8
0
 10
-9.5
 20
-19
 11
-9.4953
 21
-19.2984
  0
LINE
  8
0
 10
-9.4953
 20
-19.2984
 11
-9.48125
 21
-19.5965
  0
LINE
  8
0
 10
-9.48125
 20
-19.5965
 11
-9.45782
 21
-19.894
  0
LINE
  8
0
 10
-9.45782
 20
-19.894
 11
-9.42508
 21
-20.1907
  0
LINE
  8
0
 10
-9.42508
 20
-20.1907
 11
-9.38303
 21
-20.4861
  0
LINE
  8
0
 10
-9.38303
 20
-20.4861
 11
-9.33173
 21
-20.7801
  0
LINE
  8
0
 10
-9.33173
 20
-20.7801
 11
-9.27119
 21
-21.0724
  0
LINE
  8
0
 10
-9.27119
 20
-21.0724
 11
-9.20154
 21
-21.3625
  0
LINE
  8
0
 10
-9.20154
 20
-21.3625
 11
-9.12279
 21
-21.6504
  0
LINE
  8
0
 10
-9.12279
 20
-21.6504
 11
-9.03503
 21
-21.9357
  0
LINE
  8
0
 10
-9.03503
 20
-21.9357
 11
-8.93835
 21
-22.218
  0
LINE
  8
0
 10
-8.93835
 20
-22.218
 11
-8.83287
 21
-22.4972
  0
LINE
  8
0
 10
-8.83287
 20
-22.4972
 11
-8.71866
 21
-22.7729
  0
LINE
  8
0
 10
-8.71866
 20
-22.7729
 11
-8.59586
 21
-23.0449
  0
LINE
  8
0
 10
-8.59586
 20
-23.0449
 11
-8.46455
 21
-23.3129
  0
LINE
  8
0
 10
-8.46455
 20
-23.3129
 11
-8.32491
 21
-23.5766
  0
LINE
  8
0
 10
-8.32491
 20
-23.5766
 11
-8.17705
 21
-23.8359
  0
LINE
  8
0
 10
-8.17705
 20
-23.8359
 11
-8.0211
 21
-24.0903
  0
LINE
  8
0
 10
-8.0211
 20
-24.0903
 11
-7.85725
 21
-24.3398
  0
LINE
  8
0
 10
-7.85725
 20
-24.3398
 11
-7.68565
 21
-24.584
  0
LINE
  8
0
 10
-7.68565
 20
-24.584
 11
-7.50647
 21
-24.8226
  0
LINE
  8
0
 10
-7.50647
 20
-24.8226
 11
-7.31987
 21
-25.0555
  0
LINE
  8
0
 10
-7.31987
 20
-25.0555
 11
-7.12605
 21
-25.2825
  0
LINE
  8
0
 10
-7.12605
 20
-25.2825
 11
-6.9252
 21
-25.5032
  0
LINE
  8
0
 10
-6.9252
 20
-25.5032
 11
-6.71751
 21
-25.7175
  0
LINE
  8
0
 10
-6.71751
 20
-25.7175
 11
-6.50319
 21
-25.9252
  0
LINE
  8
0
 10
-6.50319
 20
-25.9252
 11
-6.28246
 21
-26.1261
  0
LINE
  8
0
 10
-6.28246
 20
-26.1261
 11
-6.05553
 21
-26.3199
  0
LINE
  8
0
 10
-6.05553
 20
-26.3199
 11
-5.82262
 21
-26.5065
  0
LINE
  8
0
 10
-5.82262
 20
-26.5065
 11
-5.58395
 21
-26.6857
  0
LINE
  8
0
 10
-5.58395
 20
-26.6857
 11
-5.33978
 21
-26.8573
  0
LINE
  8
0
 10
-5.33978
 20
-26.8573
 11
-5.09035
 21
-27.0211
  0
LINE
  8
0
 10
-5.09035
 20
-27.0211
 11
-4.83589
 21
-27.177
  0
LINE
  8
0
 10
-4.83589
 20
-27.177
 11
-4.57664
 21
-27.3249
  0
LINE
  8
0
 10
-4.57664
 20
-27.3249
 11
-4.3129
 21
-27.4646
  0
LINE
  8
0
 10
-4.3129
 20
-27.4646
 11
-4.04489
 21
-27.5959
  0
LINE
  8
0
 10
-4.04489
 20
-27.5959
 11
-3.7729
 21
-27.7187
  0
LINE
  8
0
 10
-3.7729
 20
-27.7187
 11
-3.49718
 21
-27.8329
  0
LINE
  8
0
 10
-3.49718
 20
-27.8329
 11
-3.218
 21
-27.9384
  0
LINE
  8
0
 10
-3.218
 20
-27.9384
 11
-2.93565
 21
-28.035
  0
LINE
  8
0
 10
-2.93565
 20
-28.035
 11
-2.65041
 21
-28.1228
  0
LINE
  8
0
 10
-2.65041
 20
-28.1228
 11
-2.36255
 21
-28.2015
  0
LINE
  8
0
 10
-2.36255
 20
-28.2015
 11
-2.07236
 21
-28.2712
  0
LINE
  8
0
 10
-2.07236
 20
-28.2712
 11
-1.78012
 21
-28.3317
  0
LINE
  8
0
 10
-1.78012
 20
-28.3317
 11
-1.48611
 21
-28.383
  0
LINE
  8
0
 10
-1.48611
 20
-28.383
 11
-1.19066
 21
-28.4251
  0
LINE
  8
0
 10
-1.19066
 20
-28.4251
 11
-0.894028
 21
-28.4578
  0
LINE
  8
0
 10
-0.894028
 20
-28.4578
 11
-0.596497
 21
-28.4812
  0
LINE
  8
0
 10
-0.596497
 20
-28.4812
 11
-0.298401
 21
-28.4953
  0
LINE
  8
0
 10
-0.298401
 20
-28.4953
 11
0
 21
-28.5
  0
LINE
  8
0
 10
0
 20
-28.5
 11
0.298401
 21
-28.4953
  0
LINE
  8
0
 10
0.298401
 20
-28.4953
 11
0.596497
 21
-28.4812
  0
LINE
  8
0
 10
0.596497
 20
-28.4812
 11
0.894028
 21
-28.4578
  0
LINE
  8
0
 10
0.894028
 20
-28.4578
 11
1.19066
 21
-28.4251
  0
LINE
  8
0
 10
1.19066
 20
-28.4251
 11
1.48611
 21
-28.383
  0
LINE
  8
0
 10
1.48611
 20
-28.383
 11
1.78012
 21
-28.3317
  0
LINE
  8
0
 10
1.78012
 20
-28.3317
 11
2.07236
 21
-28.2712
  0
LINE
  8
0
 10
2.07236
 20
-28.2712
 11
2.36255
 21
-28.2015
  0
LINE
  8
0
 10
2.36255
 20
-28.2015
 11
2.65041
 21
-28.1228
  0
LINE
  8
0
 10
2.65041
 20
-28.1228
 11
2.93565
 21
-28.035
  0
LINE
  8
0
 10
2.93565
 20
-28.035
 11
3.218
 21
-27.9384
  0
LINE
  8
0
 10
3.218
 20
-27.9384
 11
3.49718
 21
-27.8329
  0
LINE
  8
0
 10
3.49718
 20
-27.8329
 11
3.7729
 21
-27.7187
  0
LINE
  8
0
 10
3.7729
 20
-27.7187
 11
4.04489
 21
-27.5959
  0
LINE
  8
0
 10
4.04489
 20
-27.5959
 11
4.3129
 21
-27.4646
  0
LINE
  8
0
 10
4.3129
 20
-27.4646
 11
4.57664
 21
-27.3249
  0
LINE
  8
0
 10
4.57664
 20
-27.3249
 11
4.83589
 21
-27.177
  0
LINE
  8
0
 10
4.83589
 20
-27.177
 11
5.09035
 21
-27.0211
  0
LINE
  8
0
 10
5.09035
 20
-27.0211
 11
5.33978
 21
-26.8573
  0
LINE
  8
0
 10
5.33978
 20
-26.8573
 11
5.58395
 21
-26.6857
  0
LINE
  8
0
 10
5.58395
 20
-26.6857
 11
5.82262
 21
-26.5065
  0
LINE
  8
0
 10
5.82262
 20
-26.5065
 11
6.05553
 21
-26.3199
  0
LINE
  8
0
 10
6.05553
 20
-26.3199
 11
6.28246
 21
-26.1261
  0
LINE
  8
0
 10
6.28246
 20
-26.1261
 11
6.50319
 21
-25.9252
  0
LINE
  8
0
 10
6.50319
 20
-25.9252
 11
6.71751
 21
-25.7175
  0
LINE
  8
0
 10
6.71751
 20
-25.7175
 11
6.9252
 21
-25.5032
  0
LINE
  8
0
 10
6.9252
 20
-25.5032
 11
7.12605
 21
-25.2825
  0
LINE
  8
0
 10
7.12605
 20
-25.2825
 11
7.31987
 21
-25.0555
  0
LINE
  8
0
 10
7.31987
 20
-25.0555
 11
7.50647
 21
-24.8226
  0
LINE
  8
0
 10
7.50647
 20
-24.8226
 11
7.68565
 21
-24.584
  0
LINE
  8
0
 10
7.68565
 20
-24.584
 11
7.85725
 21
-24.3398
  0
LINE
  8
0
 10
7.85725
 20
-24.3398
 11
8.0211
 21
-24.0903
  0
LINE
  8
0
 10
8.0211
 20
-24.0903
 11
8.17705
 21
-23.8359
  0
LINE
  8
0
 10
8.17705
 20
-23.8359
 11
8.32491
 21
-23.5766
  0
LINE
  8
0
 10
8.32491
 20
-23.5766
 11
8.46455
 21
-23.3129
  0
LINE
  8
0
 10
8.46455
 20
-23.3129
 11
8.59586
 21
-23.0449
  0
LINE
  8
0
 10
8.59586
 20
-23.0449
 11
8.71866
 21
-22.7729
  0
LINE
  8
0
 10
8.71866
 20
-22.7729
 11
8.83287
 21
-22.4972
  0
LINE
  8
0
 10
8.83287
 20
-22.4972
 11
8.93835
 21
-22.218
  0
LINE
  8
0
 10
8.93835
 20
-22.218
 11
9.03503
 21
-21.9357
  0
LINE
  8
0
 10
9.03503
 20
-21.9357
 11
9.12279
 21
-21.6504
  0
LINE
  8
0
 10
9.12279
 20
-21.6504
 11
9.20154
 21
-21.3625
  0
LINE
  8
0
 10
9.20154
 20
-21.3625
 11
9.27119
 21
-21.0724
  0
LINE
  8
0
 10
9.27119
 20
-21.0724
 11
9.33173
 21
-20.7801
  0
LINE
  8
0
 10
9.33173
 20
-20.7801
 11
9.38303
 21
-20.4861
  0
LINE
  8
0
 10
9.38303
 20
-20.4861
 11
9.42508
 21
-20.1907
  0
LINE
  8
0
 10
9.42508
 20
-20.1907
 11
9.45782
 21
-19.894
  0
LINE
  8
0
 10
9.45782
 20
-19.894
 11
9.48125
 21
-19.5965
  0
LINE
  8
0
 10
9.48125
 20
-19.5965
 11
9.4953
 21
-19.2984
  0
LINE
  8
0
 10
9.4953
 20
-19.2984
 11
9.5
 21
-19
  0
LINE
  8
0
 10
9.5
 20
-19
 11
9.5
 21
-16.75
  0
LINE
  8
0
 10
9.5
 20
-16.75
 11
7
 21
-14.25
  0
LINE
  8
0
 10
7
 20
-14.25
 11
9.5
 21
-11.75
  0
LINE
  8
0
 10
9.5
 20
-11.75
 11
9.5
 21
49.75
  0
LINE
  8
0
 10
9.5
 20
49.75
 11
7
 21
52.25
  0
LINE
  8
0
 10
7
 20
52.25
 11
9.5
 21
54.75
  0
LINE
  8
0
 10
9.5
 20
54.75
 11
9.5
 21
57
  0
LINE
  8
0
 10
9.5
 20
57
 11
9.4953
 21
57.2984
  0
LINE
  8
0
 10
9.4953
 20
57.2984
 11
9.48125
 21
57.5965
  0
LINE
  8
0
 10
9.48125
 20
57.5965
 11
9.45782
 21
57.894
  0
LINE
  8
0
 10
9.45782
 20
57.894
 11
9.42508
 21
58.1907
  0
LINE
  8
0
 10
9.42508
 20
58.1907
 11
9.38303
 21
58.4861
  0
LINE
  8
0
 10
9.38303
 20
58.4861
 11
9.33173
 21
58.7801
  0
LINE
  8
0
 10
9.33173
 20
58.7801
 11
9.27119
 21
59.0724
  0
LINE
  8
0
 10
9.27119
 20
59.0724
 11
9.20154
 21
59.3625
  0
LINE
  8
0
 10
9.20154
 20
59.3625
 11
9.12279
 21
59.6504
  0
LINE
  8
0
 10
9.12279
 20
59.6504
 11
9.03503
 21
59.9357
  0
LINE
  8
0
 10
9.03503
 20
59.9357
 11
8.93835
 21
60.218
  0
LINE
  8
0
 10
8.93835
 20
60.218
 11
8.83287
 21
60.4972
  0
LINE
  8
0
 10
8.83287
 20
60.4972
 11
8.71866
 21
60.7729
  0
LINE
  8
0
 10
8.71866
 20
60.7729
 11
8.59586
 21
61.0449
  0
LINE
  8
0
 10
8.59586
 20
61.0449
 11
8.46455
 21
61.3129
  0
LINE
  8
0
 10
8.46455
 20
61.3129
 11
8.32491
 21
61.5766
  0
LINE
  8
0
 10
8.32491
 20
61.5766
 11
8.17705
 21
61.8359
  0
LINE
  8
0
 10
8.17705
 20
61.8359
 11
8.0211
 21
62.0903
  0
LINE
  8
0
 10
8.0211
 20
62.0903
 11
7.85725
 21
62.3398
  0
LINE
  8
0
 10
7.85725
 20
62.3398
 11
7.68565
 21
62.584
  0
LINE
  8
0
 10
7.68565
 20
62.584
 11
7.50647
 21
62.8226
  0
LINE
  8
0
 10
7.50647
 20
62.8226
 11
7.31987
 21
63.0555
  0
LINE
  8
0
 10
7.31987
 20
63.0555
 11
7.12605
 21
63.2825
  0
LINE
  8
0
 10
7.12605
 20
63.2825
 11
6.9252
 21
63.5032
  0
LINE
  8
0
 10
6.9252
 20
63.5032
 11
6.71751
 21
63.7175
  0
LINE
  8
0
 10
6.71751
 20
63.7175
 11
6.50319
 21
63.9252
  0
LINE
  8
0
 10
6.50319
 20
63.9252
 11
6.28246
 21
64.1261
  0
LINE
  8
0
 10
6.28246
 20
64.1261
 11
6.05553
 21
64.3199
  0
LINE
  8
0
 10
6.05553
 20
64.3199
 11
5.82262
 21
64.5065
  0
LINE
  8
0
 10
5.82262
 20
64.5065
 11
5.58395
 21
64.6857
  0
LINE
  8
0
 10
5.58395
 20
64.6857
 11
5.33978
 21
64.8573
  0
LINE
  8
0
 10
5.33978
 20
64.8573
 11
5.09035
 21
65.0211
  0
LINE
  8
0
 10
5.09035
 20
65.0211
 11
4.83589
 21
65.177
  0
LINE
  8
0
 10
4.83589
 20
65.177
 11
4.57664
 21
65.3249
  0
LINE
  8
0
 10
4.57664
 20
65.3249
 11
4.3129
 21
65.4646
  0
LINE
  8
0
 10
4.3129
 20
65.4646
 11
4.04489
 21
65.5959
  0
LINE
  8
0
 10
4.04489
 20
65.5959
 11
3.7729
 21
65.7187
  0
LINE
  8
0
 10
3.7729
 20
65.7187
 11
3.49718
 21
65.8329
  0
LINE
  8
0
 10
3.49718
 20
65.8329
 11
3.218
 21
65.9384
  0
LINE
  8
0
 10
3.218
 20
65.9384
 11
2.93565
 21
66.035
  0
LINE
  8
0
 10
2.93565
 20
66.035
 11
2.65041
 21
66.1228
  0
LINE
  8
0
 10
2.65041
 20
66.1228
 11
2.36255
 21
66.2015
  0
LINE
  8
0
 10
2.36255
 20
66.2015
 11
2.07236
 21
66.2712
  0
LINE
  8
0
 10
2.07236
 20
66.2712
 11
1.78012
 21
66.3317
  0
LINE
  8
0
 10
1.78012
 20
66.3317
 11
1.48611
 21
66.383
  0
LINE
  8
0
 10
1.48611
 20
66.383
 11
1.19066
 21
66.4251
  0
LINE
  8
0
 10
1.19066
 20
66.4251
 11
0.894028
 21
66.4578
  0
LINE
  8
0
 10
0.894028
 20
66.4578
 11
0.596497
 21
66.4812
  0
LINE
  8
0
 10
0.596497
 20
66.4812
 11
0.298401
 21
66.4953
  0
LINE
  8
0
 10
0.298401
 20
66.4953
 11
0
 21
66.5
  0
LINE
  8
0
 10
0
 20
66.5
 11
-0.298401
 21
66.4953
  0
LINE
  8
0
 10
-0.298401
 20
66.4953
 11
-0.596497
 21
66.4812
  0
LINE
  8
0
 10
-0.596497
 20
66.4812
 11
-0.894028
 21
66.4578
  0
LINE
  8
0
 10
-0.894028
 20
66.4578
 11
-1.19066
 21
66.4251
  0
LINE
  8
0
 10
-1.19066
 20
66.4251
 11
-1.48611
 21
66.383
  0
LINE
  8
0
 10
-1.48611
 20
66.383
 11
-1.78012
 21
66.3317
  0
LINE
  8
0
 10
-1.78012
 20
66.3317
 11
-2.07236
 21
66.2712
  0
LINE
  8
0
 10
-2.07236
 20
66.2712
 11
-2.36255
 21
66.2015
  0
LINE
  8
0
 10
-2.36255
 20
66.2015
 11
-2.65041
 21
66.1228
  0
LINE
  8
0
 10
-2.65041
 20
66.1228
 11
-2.93565
 21
66.035
  0
LINE
  8
0
 10
-2.93565
 20
66.035
 11
-3.218
 21
65.9384
  0
LINE
  8
0
 10
-3.218
 20
65.9384
 11
-3.49718
 21
65.8329
  0
LINE
  8
0
 10
-3.49718
 20
65.8329
 11
-3.7729
 21
65.7187
  0
LINE
  8
0
 10
-3.7729
 20
65.7187
 11
-4.04489
 21
65.5959
  0
LINE
  8
0
 10
-4.04489
 20
65.5959
 11
-4.3129
 21
65.4646
  0
LINE
  8
0
 10
-4.3129
 20
65.4646
 11
-4.57664
 21
65.3249
  0
LINE
  8
0
 10
-4.57664
 20
65.3249
 11
-4.83589
 21
65.177
  0
LINE
  8
0
 10
-4.83589
 20
65.177
 11
-5.09035
 21
65.0211
  0
LINE
  8
0
 10
-5.09035
 20
65.0211
 11
-5.33978
 21
64.8573
  0
LINE
  8
0
 10
-5.33978
 20
64.8573
 11
-5.58395
 21
64.6857
  0
LINE
  8
0
 10
-5.58395
 20
64.6857
 11
-5.82262
 21
64.5065
  0
LINE
  8
0
 10
-5.82262
 20
64.5065
 11
-6.05553
 21
64.3199
  0
LINE
  8
0
 10
-6.05553
 20
64.3199
 11
-6.28246
 21
64.1261
  0
LINE
  8
0
 10
-6.28246
 20
64.1261
 11
-6.50319
 21
63.9252
  0
LINE
  8
0
 10
-6.50319
 20
63.9252
 11
-6.71751
 21
63.7175
  0
LINE
  8
0
 10
-6.71751
 20
63.7175
 11
-6.9252
 21
63.5032
  0
LINE
  8
0
 10
-6.9252
 20
63.5032
 11
-7.12605
 21
63.2825
  0
LINE
  8
0
 10
-7.12605
 20
63.2825
 11
-7.31987
 21
63.0555
  0
LINE
  8
0
 10
-7.31987
 20
63.0555
 11
-7.50647
 21
62.8226
  0
LINE
  8
0
 10
-7.50647
 20
62.8226
 11
-7.68565
 21
62.584
  0
LINE
  8
0
 10
-7.68565
 20
62.584
 11
-7.85725
 21
62.3398
  0
LINE
  8
0
 10
-7.85725
 20
62.3398
 11
-8.0211
 21
62.0903
  0
LINE
  8
0
 10
-8.0211
 20
62.0903
 11
-8.17705
 21
61.8359
  0
LINE
  8
0
 10
-8.17705
 20
61.8359
 11
-8.32491
 21
61.5766
  0
LINE
  8
0
 10
-8.32491
 20
61.5766
 11
-8.46455
 21
61.3129
  0
LINE
  8
0
 10
-8.46455
 20
61.3129
 11
-8.59586
 21
61.0449
  0
LINE
  8
0
 10
-8.59586
 20
61.0449
 11
-8.71866
 21
60.7729
  0
LINE
  8
0
 10
-8.71866
 20
60.7729
 11
-8.83287
 21
60.4972
  0
LINE
  8
0
 10
-8.83287
 20
60.4972
 11
-8.93835
 21
60.218
  0
LINE
  8
0
 10
-8.93835
 20
60.218
 11
-9.03503
 21
59.9357
  0
LINE
  8
0
 10
-9.03503
 20
59.9357
 11
-9.12279
 21
59.6504
  0
LINE
  8
0
 10
-9.12279
 20
59.6504
 11
-9.20154
 21
59.3625
  0
LINE
  8
0
 10
-9.20154
 20
59.3625
 11
-9.27119
 21
59.0724
  0
LINE
  8
0
 10
-9.27119
 20
59.0724
 11
-9.33173
 21
58.7801
  0
LINE
  8
0
 10
-9.33173
 20
58.7801
 11
-9.38303
 21
58.4861
  0
LINE
  8
0
 10
-9.38303
 20
58.4861
 11
-9.42508
 21
58.1907
  0
LINE
  8
0
 10
-9.42508
 20
58.1907
 11
-9.45782
 21
57.894
  0
LINE
  8
0
 10
-9.45782
 20
57.894
 11
-9.48125
 21
57.5965
  0
LINE
  8
0
 10
-9.48125
 20
57.5965
 11
-9.4953
 21
57.2984
  0
LINE
  8
0
 10
-9.4953
 20
57.2984
 11
-9.5
 21
57
  0
LINE
  8
0
 10
-9.5
 20
57
 11
-9.5
 21
54.75
  0
LINE
  8
0
 10
-9.5
 20
54.75
 11
-7
 21
52.25
  0
LINE
  8
0
 10
-0.0470886
 20
61.0015
 11
-0.117325
 21
61.0092
  0
LINE
  8
0
 10
-0.117325
 20
61.0092
 11
-0.186508
 21
61.0236
  0
LINE
  8
0
 10
-0.186508
 20
61.0236
 11
-0.254044
 21
61.0443
  0
LINE
  8
0
 10
-0.254044
 20
61.0443
 11
-0.319321
 21
61.0714
  0
LINE
  8
0
 10
-0.319321
 20
61.0714
 11
-0.381775
 21
61.1044
  0
LINE
  8
0
 10
-0.381775
 20
61.1044
 11
-0.440826
 21
61.1432
  0
LINE
  8
0
 10
-0.440826
 20
61.1432
 11
-0.495972
 21
61.1874
  0
LINE
  8
0
 10
-0.495972
 20
61.1874
 11
-0.546722
 21
61.2366
  0
LINE
  8
0
 10
-0.546722
 20
61.2366
 11
-0.592606
 21
61.2903
  0
LINE
  8
0
 10
-0.592606
 20
61.2903
 11
-0.63324
 21
61.3481
  0
LINE
  8
0
 10
-0.63324
 20
61.3481
 11
-0.668243
 21
61.4095
  0
LINE
  8
0
 10
-0.668243
 20
61.4095
 11
-0.697327
 21
61.4739
  0
LINE
  8
0
 10
-0.697327
 20
61.4739
 11
-0.720215
 21
61.5408
  0
LINE
  8
0
 10
-0.720215
 20
61.5408
 11
-0.73671
 21
61.6095
  0
LINE
  8
0
 10
-0.73671
 20
61.6095
 11
-0.746658
 21
61.6794
  0
LINE
  8
0
 10
-0.746658
 20
61.6794
 11
-0.75
 21
61.75
  0
LINE
  8
0
 10
-0.75
 20
61.75
 11
-0.746658
 21
61.8206
  0
LINE
  8
0
 10
-0.746658
 20
61.8206
 11
-0.73671
 21
61.8905
  0
LINE
  8
0
 10
-0.73671
 20
61.8905
 11
-0.720215
 21
61.9592
  0
LINE
  8
0
 10
-0.720215
 20
61.9592
 11
-0.697327
 21
62.0261
  0
LINE
  8
0
 10
-0.697327
 20
62.0261
 11
-0.668243
 21
62.0905
  0
LINE
  8
0
 10
-0.668243
 20
62.0905
 11
-0.63324
 21
62.1519
  0
LINE
  8
0
 10
-0.63324
 20
62.1519
 11
-0.592606
 21
62.2097
  0
LINE
  8
0
 10
-0.592606
 20
62.2097
 11
-0.546722
 21
62.2634
  0
LINE
  8
0
 10
-0.546722
 20
62.2634
 11
-0.495972
 21
62.3126
  0
LINE
  8
0
 10
-0.495972
 20
62.3126
 11
-0.440826
 21
62.3568
  0
LINE
  8
0
 10
-0.440826
 20
62.3568
 11
-0.381775
 21
62.3956
  0
LINE
  8
0
 10
-0.381775
 20
62.3956
 11
-0.319321
 21
62.4286
  0
LINE
  8
0
 10
-0.319321
 20
62.4286
 11
-0.254044
 21
62.4557
  0
LINE
  8
0
 10
-0.254044
 20
62.4557
 11
-0.186508
 21
62.4764
  0
LINE
  8
0
 10
-0.186508
 20
62.4764
 11
-0.117325
 21
62.4908
  0
LINE
  8
0
 10
-0.117325
 20
62.4908
 11
-0.0470886
 21
62.4985
  0
LINE
  8
0
 10
-0.0470886
 20
62.4985
 11
0.0235443
 21
62.4996
  0
LINE
  8
0
 10
0.0235443
 20
62.4996
 11
0.0705719
 21
62.4967
  0
LINE
  8
0
 10
0.0705719
 20
62.4967
 11
0.140533
 21
62.4867
  0
LINE
  8
0
 10
0.140533
 20
62.4867
 11
0.209229
 21
62.4702
  0
LINE
  8
0
 10
0.209229
 20
62.4702
 11
0.276093
 21
62.4473
  0
LINE
  8
0
 10
0.276093
 20
62.4473
 11
0.340485
 21
62.4182
  0
LINE
  8
0
 10
0.340485
 20
62.4182
 11
0.401855
 21
62.3832
  0
LINE
  8
0
 10
0.401855
 20
62.3832
 11
0.459671
 21
62.3426
  0
LINE
  8
0
 10
0.459671
 20
62.3426
 11
0.513397
 21
62.2967
  0
LINE
  8
0
 10
0.513397
 20
62.2967
 11
0.562576
 21
62.246
  0
LINE
  8
0
 10
0.562576
 20
62.246
 11
0.60675
 21
62.1908
  0
LINE
  8
0
 10
0.60675
 20
62.1908
 11
0.645554
 21
62.1318
  0
LINE
  8
0
 10
0.645554
 20
62.1318
 11
0.678619
 21
62.0693
  0
LINE
  8
0
 10
0.678619
 20
62.0693
 11
0.705658
 21
62.004
  0
LINE
  8
0
 10
0.705658
 20
62.004
 11
0.726425
 21
61.9365
  0
LINE
  8
0
 10
0.726425
 20
61.9365
 11
0.740753
 21
61.8673
  0
LINE
  8
0
 10
0.740753
 20
61.8673
 11
0.74852
 21
61.7971
  0
LINE
  8
0
 10
0.74852
 20
61.7971
 11
0.749619
 21
61.7264
  0
LINE
  8
0
 10
0.749619
 20
61.7264
 11
0.74408
 21
61.656
  0
LINE
  8
0
 10
0.74408
 20
61.656
 11
0.731934
 21
61.5864
  0
LINE
  8
0
 10
0.731934
 20
61.5864
 11
0.713287
 21
61.5182
  0
LINE
  8
0
 10
0.713287
 20
61.5182
 11
0.688309
 21
61.4521
  0
LINE
  8
0
 10
0.688309
 20
61.4521
 11
0.657227
 21
61.3887
  0
LINE
  8
0
 10
0.657227
 20
61.3887
 11
0.6203
 21
61.3284
  0
LINE
  8
0
 10
0.6203
 20
61.3284
 11
0.577881
 21
61.2719
  0
LINE
  8
0
 10
0.577881
 20
61.2719
 11
0.530319
 21
61.2197
  0
LINE
  8
0
 10
0.530319
 20
61.2197
 11
0.478058
 21
61.1721
  0
LINE
  8
0
 10
0.478058
 20
61.1721
 11
0.421555
 21
61.1297
  0
LINE
  8
0
 10
0.421555
 20
61.1297
 11
0.361313
 21
61.0928
  0
LINE
  8
0
 10
0.361313
 20
61.0928
 11
0.297852
 21
61.0617
  0
LINE
  8
0
 10
0.297852
 20
61.0617
 11
0.23175
 21
61.0367
  0
LINE
  8
0
 10
0.23175
 20
61.0367
 11
0.163605
 21
61.0181
  0
LINE
  8
0
 10
0.163605
 20
61.0181
 11
0.0939941
 21
61.0059
  0
LINE
  8
0
 10
0.0939941
 20
61.0059
 11
0.0235443
 21
61.0004
  0
LINE
  8
0
 10
0.0235443
 20
61.0004
 11
-0.0470886
 21
61.0015
  0
LINE
  8
0
 10
-6.98499
 20
31.015
 11
-6.98499
 21
44.985
  0
LINE
  8
0
 10
-6.98499
 20
44.985
 11
6.98499
 21
44.985
  0
LINE
  8
0
 10
6.98499
 20
44.985
 11
6.98499
 21
31.015
  0
LINE
  8
0
 10
6.98499
 20
31.015
 11
-6.98499
 21
31.015
  0
LINE
  8
0
 10
-6.98499
 20
12.015
 11
-6.98499
 21
25.985
  0
LINE
  8
0
 10
-6.98499
 20
25.985
 11
6.98499
 21
25.985
  0
LINE
  8
0
 10
6.98499
 20
25.985
 11
6.98499
 21
12.015
  0
LINE
  8
0
 10
6.98499
 20
12.015
 11
-6.98499
 21
12.015
  0
LINE
  8
0
 10
-6.98499
 20
-6.98499
 11
-6.98499
 21
6.98499
  0
LINE
  8
0
 10
-6.98499
 20
6.98499
 11
6.98499
 21
6.98499
  0
LINE
  8
0
 10
6.98499
 20
6.98499
 11
6.98499
 21
-6.98499
  0
LINE
  8
0
 10
6.98499
 20
-6.98499
 11
-6.98499
 21
-6.98499
  0
LINE
  8
0
 10
-0.0470886
 20
-24.4985
 11
-0.117325
 21
-24.4908
  0
LINE
  8
0
 10
-0.117325
 20
-24.4908
 11
-0.186508
 21
-24.4764
  0
LINE
  8
0
 10
-0.186508
 20
-24.4764
 11
-0.254044
 21
-24.4557
  0
LINE
  8
0
 10
-0.254044
 20
-24.4557
 11
-0.319321
 21
-24.4286
  0
LINE
  8
0
 10
-0.319321
 20
-24.4286
 11
-0.381775
 21
-24.3956
  0
LINE
  8
0
 10
-0.381775
 20
-24.3956
 11
-0.440826
 21
-24.3568
  0
LINE
  8
0
 10
-0.440826
 20
-24.3568
 11
-0.495972
 21
-24.3126
  0
LINE
  8
0
 10
-0.495972
 20
-24.3126
 11
-0.546722
 21
-24.2634
  0
LINE
  8
0
 10
-0.546722
 20
-24.2634
 11
-0.592606
 21
-24.2097
  0
LINE
  8
0
 10
-0.592606
 20
-24.2097
 11
-0.63324
 21
-24.1519
  0
LINE
  8
0
 10
-0.63324
 20
-24.1519
 11
-0.668243
 21
-24.0905
  0
LINE
  8
0
 10
-0.668243
 20
-24.0905
 11
-0.697327
 21
-24.0261
  0
LINE
  8
0
 10
-0.697327
 20
-24.0261
 11
-0.720215
 21
-23.9592
  0
LINE
  8
0
 10
-0.720215
 20
-23.9592
 11
-0.73671
 21
-23.8905
  0
LINE
  8
0
 10
-0.73671
 20
-23.8905
 11
-0.746658
 21
-23.8206
  0
LINE
  8
0
 10
-0.746658
 20
-23.8206
 11
-0.75
 21
-23.75
  0
LINE
  8
0
 10
-0.75
 20
-23.75
 11
-0.746658
 21
-23.6794
  0
LINE
  8
0
 10
-0.746658
 20
-23.6794
 11
-0.73671
 21
-23.6095
  0
LINE
  8
0
 10
-0.73671
 20
-23.6095
 11
-0.720215
 21
-23.5408
  0
LINE
  8
0
 10
-0.720215
 20
-23.5408
 11
-0.697327
 21
-23.4739
  0
LINE
  8
0
 10
-0.697327
 20
-23.4739
 11
-0.668243
 21
-23.4095
  0
LINE
  8
0
 10
-0.668243
 20
-23.4095
 11
-0.63324
 21
-23.3481
  0
LINE
  8
0
 10
-0.63324
 20
-23.3481
 11
-0.592606
 21
-23.2903
  0
LINE
  8
0
 10
-0.592606
 20
-23.2903
 11
-0.546722
 21
-23.2366
  0
LINE
  8
0
 10
-0.546722
 20
-23.2366
 11
-0.495972
 21
-23.1874
  0
LINE
  8
0
 10
-0.495972
 20
-23.1874
 11
-0.440826
 21
-23.1432
  0
LINE
  8
0
 10
-0.440826
 20
-23.1432
 11
-0.381775
 21
-23.1044
  0
LINE
  8
0
 10
-0.381775
 20
-23.1044
 11
-0.319321
 21
-23.0714
  0
LINE
  8
0
 10
-0.319321
 20
-23.0714
 11
-0.254044
 21
-23.0443
  0
LINE
  8
0
 10
-0.254044
 20
-23.0443
 11
-0.186508
 21
-23.0236
  0
LINE
  8
0
 10
-0.186508
 20
-23.0236
 11
-0.117325
 21
-23.0092
  0
LINE
  8
0
 10
-0.117325
 20
-23.0092
 11
-0.0470886
 21
-23.0015
  0
LINE
  8
0
 10
-0.0470886
 20
-23.0015
 11
0.0235443
 21
-23.0004
  0
LINE
  8
0
 10
0.0235443
 20
-23.0004
 11
0.0939941
 21
-23.0059
  0
LINE
  8
0
 10
0.0939941
 20
-23.0059
 11
0.163605
 21
-23.0181
  0
LINE
  8
0
 10
0.163605
 20
-23.0181
 11
0.23175
 21
-23.0367
  0
LINE
  8
0
 10
0.23175
 20
-23.0367
 11
0.297852
 21
-23.0617
  0
LINE
  8
0
 10
0.297852
 20
-23.0617
 11
0.361313
 21
-23.0928
  0
LINE
  8
0
 10
0.361313
 20
-23.0928
 11
0.421555
 21
-23.1297
  0
LINE
  8
0
 10
0.421555
 20
-23.1297
 11
0.478058
 21
-23.1721
  0
LINE
  8
0
 10
0.478058
 20
-23.1721
 11
0.530319
 21
-23.2197
  0
LINE
  8
0
 10
0.530319
 20
-23.2197
 11
0.577881
 21
-23.2719
  0
LINE
  8
0
 10
0.577881
 20
-23.2719
 11
0.6203
 21
-23.3284
  0
LINE
  8
0
 10
0.6203
 20
-23.3284
 11
0.657227
 21
-23.3887
  0
LINE
  8
0
 10
0.657227
 20
-23.3887
 11
0.688309
 21
-23.4521
  0
LINE
  8
0
 10
0.688309
 20
-23.4521
 11
0.713287
 21
-23.5182
  0
LINE
  8
0
 10
0.713287
 20
-23.5182
 11
0.731934
 21
-23.5864
  0
LINE
  8
0
 10
0.731934
 20
-23.5864
 11
0.74408
 21
-23.656
  0
LINE
  8
0
 10
0.74408
 20
-23.656
 11
0.749619
 21
-23.7264
  0
LINE
  8
0
 10
0.749619
 20
-23.7264
 11
0.74852
 21
-23.7971
  0
LINE
  8
0
 10
0.74852
 20
-23.7971
 11
0.740753
 21
-23.8673
  0
LINE
  8
0
 10
0.740753
 20
-23.8673
 11
0.726425
 21
-23.9365
  0
LINE
  8
0
 10
0.726425
 20
-23.9365
 11
0.705658
 21
-24.004
  0
LINE
  8
0
 10
0.705658
 20
-24.004
 11
0.678619
 21
-24.0693
  0
LINE
  8
0
 10
0.678619
 20
-24.0693
 11
0.645554
 21
-24.1318
  0
LINE
  8
0
 10
0.645554
 20
-24.1318
 11
0.60675
 21
-24.1908
  0
LINE
  8
0
 10
0.60675
 20
-24.1908
 11
0.562576
 21
-24.246
  0
LINE
  8
0
 10
0.562576
 20
-24.246
 11
0.513397
 21
-24.2967
  0
LINE
  8
0
 10
0.513397
 20
-24.2967
 11
0.459671
 21
-24.3426
  0
LINE
  8
0
 10
0.459671
 20
-24.3426
 11
0.401855
 21
-24.3832
  0
LINE
  8
0
 10
0.401855
 20
-24.3832
 11
0.340485
 21
-24.4182
  0
LINE
  8
0
 10
0.340485
 20
-24.4182
 11
0.276093
 21
-24.4473
  0
LINE
  8
0
 10
0.276093
 20
-24.4473
 11
0.209229
 21
-24.4702
  0
LINE
  8
0
 10
0.209229
 20
-24.4702
 11
0.140533
 21
-24.4867
  0
LINE
  8
0
 10
0.140533
 20
-24.4867
 11
0.0705719
 21
-24.4967
  0
LINE
  8
0
 10
0.0705719
 20
-24.4967
 11
0.0235443
 21
-24.4996
  0
LINE
  8
0
 10
0.0235443
 20
-24.4996
 11
-0.0470886
 21
-24.4985
  0
ENDSEC
  0
SECTION
  2
OBJECTS
  0
DICTIONARY
  0
ENDSEC
  0
EOF
